<div class="userDetails">
  <h2>User details</h2>
  <a class="btn btn-small btn-warning">edit</a>
  <a class="btn btn-small btn-warning">delete</a>
  <table>
    <tr>
      <td>id</td><td>id placeholder</td>
    </tr>
    <tr>
      <td>name</td><td>name placeholder</td>
    </tr>
    <tr>
      <td>Password</td><td><a class="btn btn-small btn-warning">reset</a></td>
    </tr>
  </table>
</div>